chrX	2000000	3020000
chrX	2000000	3020000
chrX	2000000	3020000
chrX	2000000	3020000
chrX	2000000	3020000
chrX	2000000	3020000
chrX	2000000	3020000
chrX	2000000	3020000
chrX	1000000	4020000
chrX	1000000	4020000
chrX	1000000	4020000
chrX	1000000	4020000
chrX	1000000	4020000
chrX	1000000	4020000
chrX	1000000	4020000
chrX	1000000	4020000
chrX	1000000	4020000
chrX	1000000	4020000
chrX	1000000	4020000
chrX	1000000	4020000
chrX	2000000	5020000
chrX	2000000	5020000
chrX	2000000	5020000
chrX	2000000	5020000
chrX	2000000	5020000
chrX	2000000	5020000
chrX	2000000	5020000
chrX	2000000	5020000
chrX	2000000	5020000
chrX	2000000	5020000
chrX	2000000	5020000
chrX	2000000	5020000
chrX	3000000	6020000
chrX	3000000	6020000
chrX	3000000	6020000
chrX	3000000	6020000
chrX	3000000	6020000
chrX	3000000	6020000
chrX	3000000	6020000
chrX	3000000	6020000
chrX	4000000	7020000
chrX	4000000	7020000
chrX	4000000	7020000
chrX	4000000	7020000
chrX	4000000	7020000
chrX	4000000	7020000
chrX	4000000	7020000
chrX	4000000	7020000
chrX	5000000	8020000
chrX	5000000	8020000
chrX	5000000	8020000
chrX	5000000	8020000
chrX	5000000	8020000
chrX	5000000	8020000
chrX	5000000	8020000
chrX	5000000	8020000
chrX	22000000	25020000
chrX	22000000	25020000
chrX	22000000	25020000
chrX	22000000	25020000
chrX	22000000	25020000
chrX	22000000	25020000
chrX	22000000	25020000
chrX	22000000	25020000
chrX	23000000	26020000
chrX	23000000	26020000
chrX	23000000	26020000
chrX	23000000	26020000
chrX	23000000	26020000
chrX	23000000	26020000
chrX	23000000	26020000
chrX	23000000	26020000
chrX	24000000	27020000
chrX	24000000	27020000
chrX	24000000	27020000
chrX	24000000	27020000
chrX	24000000	27020000
chrX	24000000	27020000
chrX	24000000	27020000
chrX	24000000	27020000
chrX	25000000	28020000
chrX	25000000	28020000
chrX	25000000	28020000
chrX	25000000	28020000
chrX	25000000	28020000
chrX	25000000	28020000
chrX	25000000	28020000
chrX	25000000	28020000
chrX	26000000	29020000
chrX	26000000	29020000
chrX	26000000	29020000
chrX	26000000	29020000
chrX	26000000	29020000
chrX	26000000	29020000
chrX	26000000	29020000
chrX	26000000	29020000
chrX	27000000	30020000
chrX	27000000	30020000
chrX	27000000	30020000
chrX	27000000	30020000
chrX	27000000	30020000
chrX	27000000	30020000
chrX	27000000	30020000
chrX	27000000	30020000
chrX	28000000	31020000
chrX	28000000	31020000
chrX	28000000	31020000
chrX	28000000	31020000
chrX	28000000	31020000
chrX	28000000	31020000
chrX	28000000	31020000
chrX	28000000	31020000
chrX	29000000	32020000
chrX	29000000	32020000
chrX	29000000	32020000
chrX	29000000	32020000
chrX	29000000	32020000
chrX	29000000	32020000
chrX	29000000	32020000
chrX	29000000	32020000
chrX	30000000	33020000
chrX	30000000	33020000
chrX	30000000	33020000
chrX	30000000	33020000
chrX	30000000	33020000
chrX	30000000	33020000
chrX	30000000	33020000
chrX	30000000	33020000
chrX	31000000	34020000
chrX	31000000	34020000
chrX	31000000	34020000
chrX	31000000	34020000
chrX	31000000	34020000
chrX	31000000	34020000
chrX	31000000	34020000
chrX	31000000	34020000
chrX	32000000	35020000
chrX	32000000	35020000
chrX	32000000	35020000
chrX	32000000	35020000
chrX	32000000	35020000
chrX	32000000	35020000
chrX	32000000	35020000
chrX	32000000	35020000
chrX	33000000	36020000
chrX	33000000	36020000
chrX	33000000	36020000
chrX	33000000	36020000
chrX	33000000	36020000
chrX	33000000	36020000
chrX	33000000	36020000
chrX	33000000	36020000
chrX	34000000	37020000
chrX	34000000	37020000
chrX	34000000	37020000
chrX	34000000	37020000
chrX	34000000	37020000
chrX	34000000	37020000
chrX	34000000	37020000
chrX	34000000	37020000
chrX	35000000	38020000
chrX	35000000	38020000
chrX	35000000	38020000
chrX	35000000	38020000
chrX	35000000	38020000
chrX	35000000	38020000
chrX	35000000	38020000
chrX	35000000	38020000
chrX	36000000	39020000
chrX	36000000	39020000
chrX	36000000	39020000
chrX	36000000	39020000
chrX	36000000	39020000
chrX	36000000	39020000
chrX	36000000	39020000
chrX	36000000	39020000
chrX	37000000	40020000
chrX	37000000	40020000
chrX	37000000	40020000
chrX	37000000	40020000
chrX	37000000	40020000
chrX	37000000	40020000
chrX	37000000	40020000
chrX	37000000	40020000
chrX	51000000	54020000
chrX	51000000	54020000
chrX	51000000	54020000
chrX	51000000	54020000
chrX	52000000	55020000
chrX	52000000	55020000
chrX	52000000	55020000
chrX	52000000	55020000
chrX	52000000	55020000
chrX	52000000	55020000
chrX	52000000	55020000
chrX	52000000	55020000
chrX	53000000	56020000
chrX	53000000	56020000
chrX	53000000	56020000
chrX	53000000	56020000
chrX	53000000	56020000
chrX	53000000	56020000
chrX	53000000	56020000
chrX	53000000	56020000
chrX	54000000	57020000
chrX	54000000	57020000
chrX	54000000	57020000
chrX	54000000	57020000
chrX	54000000	57020000
chrX	54000000	57020000
chrX	54000000	57020000
chrX	54000000	57020000
chrX	55000000	58020000
chrX	55000000	58020000
chrX	55000000	58020000
chrX	55000000	58020000
chrX	55000000	58020000
chrX	55000000	58020000
chrX	55000000	58020000
chrX	55000000	58020000
chrX	92000000	95020000
chrX	92000000	95020000
chrX	92000000	95020000
chrX	93000000	96020000
chrX	93000000	96020000
chrX	93000000	96020000
chrX	94000000	97020000
chrX	94000000	97020000
chrX	94000000	97020000
chrX	109000000	112020000
chrX	109000000	112020000
chrX	109000000	112020000
chrX	109000000	112020000
chrX	110000000	113020000
chrX	110000000	113020000
chrX	110000000	113020000
chrX	110000000	113020000
chrX	111000000	114020000
chrX	111000000	114020000
chrX	111000000	114020000
chrX	111000000	114020000
chrX	121000000	124020000
chrX	121000000	124020000
chrX	121000000	124020000
chrX	121000000	124020000
chrX	121000000	124020000
chrX	121000000	124020000
chrX	122000000	125020000
chrX	122000000	125020000
chrX	122000000	125020000
chrX	122000000	125020000
chrX	122000000	125020000
chrX	122000000	125020000
chrX	122000000	125020000
chrX	122000000	125020000
chrX	123000000	126020000
chrX	123000000	126020000
chrX	123000000	126020000
chrX	123000000	126020000
chrX	123000000	126020000
chrX	123000000	126020000
chrX	123000000	126020000
chrX	123000000	126020000
chrX	124000000	127020000
chrX	124000000	127020000
chrX	124000000	127020000
chrX	124000000	127020000
chrX	124000000	127020000
chrX	124000000	127020000
chrX	124000000	127020000
chrX	124000000	127020000
chrX	125000000	128020000
chrX	125000000	128020000
chrX	125000000	128020000
chrX	125000000	128020000
chrX	125000000	128020000
chrX	125000000	128020000
chrX	125000000	128020000
chrX	125000000	128020000
chrX	133000000	136020000
chrX	133000000	136020000
chrX	133000000	136020000
chrX	133000000	136020000
chrX	133000000	136020000
chrX	133000000	136020000
chrX	133000000	136020000
chrX	133000000	136020000
chrX	134000000	137020000
chrX	134000000	137020000
chrX	134000000	137020000
chrX	134000000	137020000
chrX	134000000	137020000
chrX	134000000	137020000
chrX	134000000	137020000
chrX	134000000	137020000
chrX	135000000	138020000
chrX	135000000	138020000
chrX	135000000	138020000
chrX	135000000	138020000
chrX	135000000	138020000
chrX	135000000	138020000
chrX	135000000	138020000
chrX	135000000	138020000
chrX	139000000	142020000
chrX	139000000	142020000
chrX	139000000	142020000
chrX	139000000	142020000
chrX	140000000	143020000
chrX	140000000	143020000
chrX	140000000	143020000
chrX	140000000	143020000
chrX	141000000	144020000
chrX	141000000	144020000
chrX	141000000	144020000
chrX	141000000	144020000
chrX	145000000	148020000
chrX	146000000	149020000
chrX	146000000	149020000
chrX	146000000	149020000
chrX	146000000	149020000
chrX	146000000	149020000
chrX	146000000	149020000
chrX	146000000	149020000
chrX	146000000	149020000
chrX	147000000	150020000
chrX	147000000	150020000
chrX	147000000	150020000
chrX	147000000	150020000
chrX	147000000	150020000
chrX	147000000	150020000
chrX	147000000	150020000
chrX	147000000	150020000
chrX	148000000	151020000
chrX	148000000	151020000
chrX	148000000	151020000
chrX	148000000	151020000
chrX	148000000	151020000
chrX	148000000	151020000
chrX	148000000	151020000
chrX	148000000	151020000
chrX	149000000	152020000
chrX	149000000	152020000
chrX	149000000	152020000
chrX	149000000	152020000
chrX	149000000	152020000
chrX	149000000	152020000
chrX	149000000	152020000
chrX	149000000	152020000
chrX	168000000	171020000
chrX	168000000	171020000
chrX	168000000	171020000
chrX	168000000	171020000
chrX	168000000	171020000
chrX	168000000	171020000
chrX	168000000	171020000
chrX	168000000	171020000
chrX	168000000	171020000
chrX	168000000	171020000
chrX	168000000	171020000
chrX	168000000	171020000
chrX	169000000	171031299
chrX	169000000	171031299
chrX	169000000	171031299
chrX	169000000	171031299
chrX	169000000	171031299
chrX	169000000	171031299
chrX	169000000	171031299
chrX	169000000	171031299
chrX	169000000	171031299
chrX	169000000	171031299
chrX	169000000	171031299
chrX	169000000	171031299
chrX	169000000	171031299
chrX	169000000	171031299
chrX	169000000	171031299
chrX	169000000	171031299
