chr10	4000000	6040000
chr10	4000000	6040000
chr10	2000000	8040000
chr10	2000000	8040000
chr10	2000000	8040000
chr10	2000000	8040000
chr10	12000000	18040000
chr10	12000000	18040000
chr10	14000000	20040000
chr10	14000000	20040000
chr10	14000000	20040000
chr10	14000000	20040000
chr10	16000000	22040000
chr10	16000000	22040000
chr10	16000000	22040000
chr10	16000000	22040000
chr10	18000000	24040000
chr10	34000000	40040000
chr10	34000000	40040000
chr10	34000000	40040000
chr10	34000000	40040000
chr10	34000000	40040000
chr10	34000000	40040000
chr10	36000000	42040000
chr10	36000000	42040000
chr10	36000000	42040000
chr10	36000000	42040000
chr10	36000000	42040000
chr10	36000000	42040000
chr10	38000000	44040000
chr10	38000000	44040000
chr10	38000000	44040000
chr10	38000000	44040000
chr10	38000000	44040000
chr10	38000000	44040000
chr10	40000000	46040000
chr10	40000000	46040000
chr10	40000000	46040000
chr10	40000000	46040000
chr10	40000000	46040000
chr10	40000000	46040000
chr10	42000000	48040000
chr10	42000000	48040000
chr10	42000000	48040000
chr10	42000000	48040000
chr10	42000000	48040000
chr10	42000000	48040000
chr10	44000000	50040000
chr10	44000000	50040000
chr10	44000000	50040000
chr10	44000000	50040000
chr10	46000000	52040000
chr10	46000000	52040000
chr10	46000000	52040000
chr10	46000000	52040000
chr10	48000000	54040000
chr10	48000000	54040000
chr10	48000000	54040000
chr10	48000000	54040000
chr10	50000000	56040000
chr10	50000000	56040000
chr10	50000000	56040000
chr10	50000000	56040000
chr10	84000000	90040000
chr10	84000000	90040000
chr10	86000000	92040000
chr10	86000000	92040000
chr10	88000000	94040000
chr10	88000000	94040000
chr10	124000000	130040000
chr10	124000000	130040000
chr10	126000000	132040000
chr10	126000000	132040000
chr10	128000000	134040000
chr10	128000000	134040000
chr10	130000000	135560000
chr10	130000000	135560000
chr10	130000000	135560000
chr10	130000000	135560000
