chr12	4000000	6040000
chr12	4000000	6040000
chr12	2000000	8040000
chr12	2000000	8040000
chr12	2000000	8040000
chr12	2000000	8040000
chr12	30000000	36040000
chr12	30000000	36040000
chr12	30000000	36040000
chr12	30000000	36040000
chr12	30000000	36040000
chr12	30000000	36040000
chr12	32000000	38040000
chr12	32000000	38040000
chr12	32000000	38040000
chr12	32000000	38040000
chr12	32000000	38040000
chr12	32000000	38040000
chr12	34000000	40040000
chr12	34000000	40040000
chr12	34000000	40040000
chr12	34000000	40040000
chr12	34000000	40040000
chr12	34000000	40040000
chr12	36000000	42040000
chr12	36000000	42040000
chr12	36000000	42040000
chr12	36000000	42040000
chr12	36000000	42040000
chr12	36000000	42040000
chr12	128000000	133880000
chr12	128000000	133880000
chr12	128000000	133880000
chr12	128000000	133880000
chr12	128000000	133880000
chr12	128000000	133880000
