chr5	4000000	6040000
chr5	4000000	6040000
chr5	2000000	8040000
chr5	2000000	8040000
chr5	2000000	8040000
chr5	2000000	8040000
chr5	42000000	48040000
chr5	42000000	48040000
chr5	42000000	48040000
chr5	42000000	48040000
chr5	42000000	48040000
chr5	42000000	48040000
chr5	44000000	50040000
chr5	44000000	50040000
chr5	44000000	50040000
chr5	44000000	50040000
chr5	44000000	50040000
chr5	44000000	50040000
chr5	46000000	52040000
chr5	46000000	52040000
chr5	46000000	52040000
chr5	46000000	52040000
chr5	46000000	52040000
chr5	46000000	52040000
chr5	48000000	54040000
chr5	48000000	54040000
chr5	48000000	54040000
chr5	48000000	54040000
chr5	48000000	54040000
chr5	48000000	54040000
chr5	64000000	70040000
chr5	64000000	70040000
chr5	64000000	70040000
chr5	64000000	70040000
chr5	66000000	72040000
chr5	66000000	72040000
chr5	66000000	72040000
chr5	66000000	72040000
chr5	68000000	74040000
chr5	68000000	74040000
chr5	68000000	74040000
chr5	68000000	74040000
chr5	70000000	76040000
chr5	70000000	76040000
chr5	70000000	76040000
chr5	70000000	76040000
chr5	172000000	178040000
chr5	172000000	178040000
chr5	174000000	180040000
chr5	174000000	180040000
chr5	176000000	180920000
chr5	176000000	180920000
chr5	176000000	180920000
chr5	176000000	180920000
chr5	176000000	180920000
chr5	176000000	180920000
chr5	176000000	180920000
chr5	176000000	180920000
