chr12	113400000	113640000
chr12	104840000	105040000
chr12	121680000	122120000
chr12	101200000	101680000
chr12	27480000	27880000
chr12	9360000	10360000
chr12	7440000	7800000
chr12	22840000	23680000
chr12	29480000	30960000
chr12	71120000	72160000
chr12	4680000	4920000
chr12	7360000	8680000
chr12	87440000	87720000
chr12	12520000	12760000
chr12	114440000	114840000
chr12	123760000	124240000
chr12	74280000	74880000
chr12	59800000	60320000
chr12	10360000	10920000
chr12	55560000	56040000
chr12	52400000	53440000
chr12	22200000	22640000
chr12	40720000	41000000
chr12	102560000	102880000
chr12	47040000	47360000
chr12	120200000	120520000
chr12	91760000	93840000
chr12	100600000	100960000
chr12	76040000	76240000
chr12	113800000	114400000
chr12	118560000	118840000
chr12	128160000	128560000
chr12	21600000	22200000
chr12	112880000	113600000
chr12	85240000	85440000
chr12	97360000	97880000
chr12	106960000	107200000
chr12	116360000	117320000
chr12	26240000	26960000
chr12	69200000	69520000
chr12	112880000	113240000
chr12	5640000	5840000
chr12	108280000	108920000
chr12	14440000	14840000
chr12	12920000	13400000
chr12	126560000	127240000
chr12	81640000	82000000
chr12	101400000	101680000
chr12	111320000	111760000
chr12	115080000	116360000
chr12	78960000	79160000
chr12	83560000	84320000
chr12	102480000	103160000
chr12	102920000	103160000
chr12	96960000	97360000
chr12	106960000	107280000
chr12	91520000	91720000
chr12	68720000	69200000
chr12	62640000	63360000
chr12	104960000	105280000
chr12	63480000	64840000
chr12	65680000	66360000
chr12	57160000	57360000
chr12	20960000	21560000
chr12	120640000	121680000
chr12	104360000	105600000
chr12	75080000	75760000
chr12	122080000	122720000
chr12	21840000	22640000
chr12	92520000	93040000
chr12	116680000	117160000
chr12	71440000	71840000
chr12	108520000	108920000
chr12	86320000	87120000
chr12	115200000	116080000
chr12	25080000	25320000
chr12	89400000	89640000
chr12	123240000	123440000
chr12	50840000	51080000
chr12	117240000	117440000
chr12	103240000	104000000
chr12	72680000	74280000
chr12	73160000	73520000
chr12	20560000	20760000
chr12	79880000	80600000
chr12	120400000	120640000
chr12	80840000	81040000
chr12	117640000	118560000
chr12	19840000	20840000
chr12	90880000	91240000
chr12	121760000	122840000
chr12	108960000	109280000
chr12	106160000	106480000
chr12	74920000	75880000
chr12	16080000	16320000
chr12	51160000	51800000
chr12	57640000	57880000
chr12	56360000	57120000
chr12	96440000	96920000
chr12	81160000	81360000
chr12	25560000	27000000
chr12	83560000	84080000
chr12	86600000	86960000
chr12	28080000	28360000
chr12	82800000	85240000
chr12	118320000	118800000
chr12	112280000	112880000
chr12	79880000	80160000
chr12	49200000	49400000
chr12	124520000	124800000
chr12	57280000	57480000
chr12	115080000	116240000
chr12	64800000	65160000
chr12	107480000	108960000
chr12	124520000	124720000
chr12	116440000	116720000
chr12	88600000	89040000
chr12	108040000	108280000
chr12	105920000	106160000
chr12	41720000	42480000
chr12	93320000	93840000
chr12	43760000	44160000
chr12	106880000	107320000
chr12	70000000	70240000
chr12	103960000	104360000
chr12	45080000	45280000
chr12	10920000	11360000
chr12	111920000	112280000
chr12	94520000	95960000
chr12	9240000	10280000
chr12	122720000	123240000
chr12	8160000	8680000
chr12	88640000	88880000
chr12	53440000	54800000
chr12	84280000	84520000
chr12	39320000	39520000
chr12	65160000	65640000
chr12	20160000	20800000
chr12	89920000	91360000
chr12	14920000	16040000
chr12	65280000	65520000
chr12	128720000	129320000
chr12	56360000	56880000
chr12	110840000	111320000
chr12	98840000	100200000
chr12	95480000	95680000
chr12	44880000	45080000
chr12	108920000	109560000
chr12	126480000	127240000
chr12	71120000	71320000
chr12	57400000	58040000
chr12	45520000	46440000
chr12	5240000	6080000
chr12	71120000	71840000
chr12	26400000	26720000
chr12	72680000	72920000
chr12	76960000	77440000
chr12	5240000	5520000
chr12	111320000	111640000
chr12	81720000	82040000
chr12	97400000	98480000
chr12	100600000	101800000
chr12	56120000	58160000
chr12	5200000	6160000
chr12	10480000	10680000
chr12	48080000	49080000
chr12	42960000	43720000
chr12	21240000	21520000
chr12	40520000	40720000
chr12	65640000	66520000
chr12	23000000	23800000
chr12	123480000	124240000
chr12	43120000	43680000
chr12	58720000	59200000
chr12	68720000	69520000
chr12	118320000	118560000
chr12	44400000	45200000
chr12	40720000	41320000
chr12	49400000	49680000
chr12	46800000	47080000
chr12	107040000	107320000
chr12	84960000	85240000
chr12	49240000	50240000
chr12	58360000	58720000
chr12	94920000	95160000
chr12	120040000	120480000
chr12	89480000	89920000
chr12	105640000	106680000
chr12	106720000	107320000
chr12	95960000	96240000
chr12	117800000	118320000
chr12	124120000	124480000
chr12	55080000	55520000
chr12	72360000	72680000
chr12	15560000	15800000
chr12	11680000	12920000
chr12	41800000	42040000
chr12	78520000	79920000
chr12	83360000	83600000
chr12	48360000	48600000
chr12	106720000	106960000
chr12	69680000	70120000
chr12	48560000	49040000
chr12	108320000	108560000
chr12	125640000	128600000
chr12	70640000	70840000
chr12	127600000	127880000
chr12	113040000	113400000
chr12	40120000	40560000
chr12	72160000	72360000
chr12	46400000	47400000
chr12	118840000	119360000
chr12	124520000	125000000
chr12	112440000	112880000
chr12	19320000	19840000
chr12	21760000	22200000
chr12	68440000	68720000
chr12	18280000	19840000
chr12	56680000	56880000
chr12	62760000	63240000
chr12	112880000	113320000
chr12	62920000	63200000
chr12	21560000	21840000
chr12	57680000	58160000
chr12	116400000	117240000
chr12	72920000	73160000
chr12	52800000	53000000
chr12	46800000	47400000
chr12	75880000	76480000
chr12	101160000	101800000
chr12	121760000	122080000
chr12	50120000	51160000
chr12	12480000	12920000
chr12	25320000	25560000
chr12	84320000	84800000
chr12	51800000	52280000
chr12	70400000	70960000
chr12	10880000	11640000
chr12	17800000	18080000
chr12	96600000	96920000
chr12	73560000	74320000
chr12	109520000	109880000
chr12	8000000	8640000
chr12	70360000	70840000
chr12	117440000	117640000
chr12	45560000	45880000
chr12	112360000	112880000
chr12	41320000	41640000
chr12	124840000	125240000
chr12	51800000	52400000
chr12	94160000	94400000
chr12	14920000	15400000
chr12	115200000	116200000
chr12	44400000	44640000
chr12	16760000	17240000
chr12	99560000	99760000
chr12	93480000	93800000
chr12	102320000	102560000
chr12	50240000	50480000
chr12	29160000	29520000
chr12	22960000	23680000
chr12	39040000	39320000
chr12	86760000	86960000
chr12	119600000	119840000
chr12	129400000	130440000
chr12	73560000	74160000
chr12	55720000	55960000
chr12	114080000	114360000
chr12	75040000	75880000
chr12	40240000	40480000
chr12	43120000	43400000
chr12	7320000	8200000
chr12	22200000	22440000
chr12	123240000	124200000
chr12	111320000	112280000
chr12	107480000	108120000
chr12	6600000	7320000
chr12	42800000	43800000
chr12	6160000	6480000
chr12	53840000	54840000
chr12	7320000	8000000
chr12	78080000	78360000
chr12	12920000	14360000
chr12	120520000	120720000
chr12	56120000	56400000
chr12	112080000	112280000
chr12	112360000	113440000
chr12	46480000	47120000
chr12	52200000	52440000
chr12	72080000	72360000
chr12	95960000	96440000
chr12	88480000	89400000
chr12	104520000	105520000
chr12	20800000	21600000
chr12	61680000	61960000
chr12	72920000	73560000
chr12	52600000	53320000
chr12	69520000	70040000
chr12	97000000	97240000
chr12	114400000	116360000
chr12	46600000	46800000
chr12	68720000	68920000
chr12	119000000	119240000
chr12	17400000	17720000
chr12	29760000	29960000
chr12	111920000	112360000
chr12	18480000	19320000
chr12	11000000	11280000
chr12	54600000	54880000
chr12	121000000	121200000
chr12	125800000	126040000
chr12	79320000	79560000
chr12	50120000	50760000
chr12	96280000	96920000
chr12	65680000	65920000
chr12	12200000	12880000
chr12	121200000	121440000
chr12	115280000	115760000
chr12	44280000	45360000
chr12	77400000	78360000
chr12	80160000	80600000
chr12	101000000	101800000
chr12	109840000	110440000
chr12	64200000	64800000
chr12	22640000	22840000
chr12	9440000	10360000
chr12	16320000	16520000
chr12	19480000	19880000
chr12	71560000	71840000
chr12	112840000	113400000
chr12	60320000	60760000
chr12	54920000	56120000
chr12	108040000	108960000
chr12	4440000	4680000
chr12	16320000	16760000
chr12	130880000	131280000
chr12	114400000	115080000
chr12	85680000	86320000
chr12	11360000	11640000
chr12	122240000	122800000
chr12	64200000	65160000
chr12	94520000	95400000
chr12	82800000	83080000
chr12	41560000	42520000
chr12	111080000	111320000
chr12	103240000	104320000
chr12	110880000	111080000
chr12	91320000	91760000
chr12	15400000	16080000
chr12	80680000	81160000
chr12	88600000	89400000
chr12	100720000	100960000
chr12	126040000	126360000
chr12	113600000	113840000
chr12	67720000	68720000
chr12	65240000	66520000
chr12	48120000	48560000
chr12	17200000	17400000
chr12	105760000	107440000
chr12	16800000	17000000
chr12	49680000	50000000
chr12	116360000	117640000
chr12	16120000	16760000
chr12	63760000	64120000
chr12	6440000	6640000
chr12	100960000	101160000
chr12	118840000	119040000
chr12	98880000	99080000
chr12	69200000	70000000
chr12	115080000	115280000
chr12	76440000	76800000
chr12	105640000	106600000
chr12	69600000	70080000
chr12	130960000	131240000
chr12	95400000	95960000
chr12	105760000	106720000
chr12	129440000	129640000
chr12	94560000	94840000
chr12	72040000	72240000
chr12	43760000	44320000
chr12	90520000	90880000
chr12	76960000	78360000
chr12	14360000	14920000
chr12	16760000	17880000
chr12	13840000	14160000
chr12	76760000	76960000
chr12	78360000	79920000
chr12	8160000	8360000
chr12	108920000	109920000
chr12	67680000	68480000
chr12	17520000	17720000
chr12	16760000	18160000
chr12	80600000	81160000
chr12	110040000	110240000
chr12	68800000	69080000
chr12	126000000	126480000
chr12	120720000	121000000
chr12	70120000	71120000
chr12	109240000	109520000
chr12	59800000	60480000
chr12	30760000	30960000
chr12	123440000	123720000
chr12	15800000	16040000
chr12	48760000	49000000
chr12	61240000	62600000
chr12	75080000	75520000
chr12	25560000	26240000
chr12	10360000	11680000
chr12	112120000	112840000
chr12	93080000	93320000
chr12	61520000	62560000
chr12	55080000	55400000
chr12	57120000	57440000
chr12	85440000	85840000
chr12	49200000	50120000
chr12	99400000	100200000
chr12	40160000	40720000
chr12	80440000	81680000
chr12	91760000	92480000
chr12	28360000	29160000
chr12	31800000	32880000
chr12	57880000	58160000
chr12	17240000	17800000
chr12	60680000	61120000
chr12	94920000	95400000
chr12	7000000	7320000
chr12	42200000	42400000
chr12	78760000	78960000
chr12	14960000	15160000
chr12	4920000	5240000
chr12	13360000	14360000
chr12	65320000	65840000
chr12	5200000	6600000
chr12	15400000	15800000
chr12	29600000	30800000
chr12	127880000	128160000
chr12	45640000	45840000
chr12	61640000	62400000
chr12	100600000	101160000
chr12	85440000	86280000
chr12	38720000	39040000
chr12	55000000	55560000
chr12	82360000	82680000
chr12	110440000	110880000
chr12	13120000	13400000
chr12	22840000	25040000
chr12	108640000	108840000
chr12	41320000	42520000
chr12	99160000	99400000
chr12	18360000	19480000
chr12	60920000	61520000
chr12	61120000	61640000
chr12	112560000	112840000
chr12	106680000	107440000
chr12	125800000	127880000
chr12	81160000	81640000
chr12	21840000	22200000
chr12	80680000	81680000
chr12	45880000	46120000
chr12	15720000	16080000
chr12	118560000	120160000
chr12	124480000	125320000
chr12	104800000	105280000
chr12	104840000	105160000
chr12	102240000	103240000
chr12	121000000	121480000
chr12	45520000	46120000
chr12	13400000	14200000
chr12	90680000	90920000
chr12	15160000	15400000
chr12	105480000	105800000
chr12	102560000	103160000
chr12	8280000	8480000
chr12	53880000	54120000
chr12	59640000	60520000
chr12	16520000	16760000
chr12	92200000	92520000
chr12	73560000	74000000
chr12	67680000	68600000
chr12	16760000	17800000
chr12	96240000	96440000
chr12	50720000	51160000
chr12	41440000	42520000
chr12	77520000	78080000
chr12	66760000	67120000
chr12	121160000	121360000
chr12	58720000	59600000
chr12	64120000	64800000
chr12	75880000	76760000
chr12	57160000	58160000
chr12	70080000	72120000
chr12	29520000	31440000
chr12	72360000	74880000
chr12	8800000	9080000
chr12	9320000	9880000
chr12	72240000	74920000
chr12	83080000	83320000
chr12	104320000	104560000
chr12	13400000	13840000
chr12	64200000	64760000
chr12	26960000	27480000
chr12	129320000	130480000
chr12	18560000	19080000
chr12	30160000	30360000
chr12	9880000	10360000
chr12	63440000	64200000
chr12	27560000	27880000
chr12	113600000	114400000
chr12	76480000	76960000
chr12	69200000	69600000
chr12	56120000	57160000
chr12	73560000	73760000
chr12	126040000	126560000
chr12	53000000	53280000
chr12	126480000	127320000
chr12	49240000	49680000
chr12	31000000	31320000
chr12	9960000	10280000
chr12	49360000	50120000
chr12	49120000	50000000
chr12	51160000	52280000
chr12	67280000	67720000
chr12	42760000	42960000
chr12	65240000	65840000
chr12	123800000	124080000
chr12	27880000	28360000
chr12	97840000	98440000
chr12	105600000	105800000
chr12	113720000	114400000
chr12	5520000	6040000
chr12	70360000	70640000
chr12	101200000	101480000
chr12	119400000	119600000
chr12	20960000	21360000
chr12	42480000	42840000
chr12	121680000	121880000
chr12	25400000	26240000
chr12	87080000	88400000
chr12	16160000	18200000
chr12	12200000	12520000
chr12	69200000	69680000
chr12	58960000	59360000
chr12	13400000	13720000
chr12	104720000	105360000
chr12	91760000	93120000
chr12	50240000	50720000
chr12	29280000	29600000
chr12	123240000	123760000
chr12	89040000	89400000
chr12	49640000	50120000
chr12	58160000	58360000
chr12	79240000	79760000
chr12	78560000	78760000
chr12	104880000	105280000
chr12	68600000	69200000
chr12	59560000	60280000
chr12	95160000	95400000
chr12	6640000	7040000
chr12	121880000	122680000
chr12	54320000	54600000
chr12	6160000	6640000
chr12	103560000	103760000
chr12	56480000	56680000
chr12	23680000	24080000
chr12	24080000	24920000
chr12	66520000	67280000
chr12	17360000	17800000
chr12	96400000	98840000
chr12	93840000	94520000
chr12	51440000	51680000
chr12	128720000	129400000
chr12	128680000	130520000
chr12	21040000	21280000
chr12	52720000	52920000
chr12	59760000	62600000
chr12	79960000	80680000
chr12	97040000	97400000
chr12	5840000	6040000
chr12	99040000	99400000
chr12	14440000	14760000
chr12	96920000	98840000
chr12	8640000	9240000
chr12	124960000	125200000
chr12	120720000	121720000
chr12	30960000	31440000
chr12	8320000	9360000
chr12	78760000	79240000
chr12	75440000	75680000
chr12	28800000	29120000
chr12	54080000	54640000
chr12	27880000	29480000
chr12	114440000	114960000
chr12	15400000	15720000
chr12	122080000	122360000
chr12	63240000	63480000
chr12	53880000	54640000
chr12	39680000	40160000
chr12	21760000	22640000
chr12	100200000	100480000
chr12	103400000	103920000
chr12	105560000	106600000
chr12	67720000	69200000
chr12	47400000	48120000
chr12	51440000	51760000
chr12	75200000	75720000
chr12	17000000	17200000
chr12	83040000	84960000
chr12	9240000	9880000
chr12	66520000	67680000
chr12	107560000	108040000
chr12	124280000	125480000
chr12	23000000	23440000
chr12	49120000	49400000
chr12	76480000	76880000
chr12	94520000	94960000
chr12	83040000	84440000
chr12	66640000	67120000
chr12	115280000	116360000
chr12	5200000	6440000
chr12	56680000	57120000
chr12	77000000	77200000
chr12	124480000	125400000
chr12	7320000	7840000
chr12	118840000	119240000
chr12	73040000	73560000
chr12	59560000	59800000
chr12	10360000	10760000
chr12	66520000	67120000
chr12	104680000	105480000
chr12	124520000	125200000
chr12	20240000	20560000
chr12	66720000	67120000
chr12	85840000	86320000
chr12	98920000	99400000
chr12	122360000	122640000
chr12	121720000	122640000
chr12	125600000	125800000
chr12	121920000	122960000
chr12	63480000	64120000
chr12	117200000	117600000
chr12	48240000	49120000
chr12	65160000	66520000
chr12	70000000	71120000
chr12	122760000	123000000
chr12	27160000	27440000
chr12	14440000	14680000
chr12	60240000	60680000
chr12	59760000	60800000
chr12	20760000	21000000
chr12	28080000	29200000
chr12	106560000	106760000
chr12	54800000	55000000
chr12	82000000	82760000
chr12	18400000	19360000
chr12	31440000	32880000
chr12	80320000	80600000
chr12	122960000	124120000
chr12	118840000	119440000
chr12	9600000	9880000
chr12	126680000	127200000
chr12	58360000	59680000
chr12	83080000	83560000
chr12	75880000	77000000
chr12	120960000	121560000
chr12	81640000	82760000
chr12	56400000	57000000
chr12	29960000	30160000
chr12	44280000	45520000
chr12	84400000	84960000
chr12	53400000	53920000
chr12	125400000	125640000
chr12	58320000	59600000
chr12	110360000	111320000
chr12	41000000	41320000
chr12	86280000	88400000
chr12	23680000	24960000
chr12	99400000	100600000
chr12	124240000	125400000
chr12	129080000	129280000
chr12	127360000	127880000
chr12	117600000	118320000
chr12	72680000	73560000
chr12	51920000	52200000
chr12	127880000	128600000
chr12	51160000	51440000
chr12	100160000	100600000
chr12	88440000	89880000
chr12	58720000	58960000
chr12	106600000	107360000
chr12	123000000	123240000
chr12	57440000	57960000
chr12	50760000	51800000
chr12	90520000	91280000
chr12	27880000	29200000
chr12	89400000	89920000
chr12	86360000	86600000
chr12	49360000	50760000
chr12	120720000	121600000
chr12	11680000	12520000
chr12	31480000	31800000
chr12	90680000	91240000
chr12	77440000	78120000
chr12	39680000	40720000
chr12	122240000	122680000
chr12	101760000	102280000
chr12	57440000	57640000
chr12	11000000	11360000
chr12	6080000	6440000
chr12	98440000	98800000
chr12	51160000	52400000
chr12	116360000	117440000
chr12	90120000	90520000
chr12	5520000	5840000
chr12	74840000	75040000
chr12	97360000	98800000
chr12	105720000	106600000
chr12	8800000	9200000
chr12	60760000	61560000
chr12	22200000	22840000
chr12	68440000	69080000
chr12	41480000	42800000
chr12	78960000	79240000
chr12	57440000	58160000
chr12	29720000	30360000
chr12	93120000	93840000
chr12	60520000	61280000
chr12	70240000	71000000
chr12	48120000	48360000
chr12	26960000	27840000
chr12	67400000	67640000
chr12	74560000	74800000
chr12	121880000	122080000
chr12	110440000	111080000
chr12	16080000	18240000
chr12	120520000	121720000
chr12	63360000	64200000
chr12	126000000	127400000
chr12	118800000	120080000
chr12	7320000	8560000
chr12	53680000	54800000
chr12	11680000	12240000
chr12	65920000	66480000
chr12	101160000	102160000
chr12	56880000	57120000
chr12	31080000	31360000
chr12	77200000	77440000
chr12	56120000	56880000
chr12	111320000	111920000
chr12	27560000	27760000
chr12	8680000	9880000
