chr10	127200000	127400000
chr10	98760000	99040000
chr10	77840000	78880000
chr10	69560000	70120000
chr10	92640000	93040000
chr10	74160000	74360000
chr10	7520000	7920000
chr10	68000000	69360000
chr10	101960000	102280000
chr10	32640000	33320000
chr10	28920000	29760000
chr10	66800000	67560000
chr10	100280000	100480000
chr10	72160000	72640000
chr10	114280000	114960000
chr10	36680000	36880000
chr10	70720000	70960000
chr10	98320000	98600000
chr10	12160000	13160000
chr10	96560000	96840000
chr10	96920000	97120000
chr10	29320000	29560000
chr10	68680000	69400000
chr10	91480000	92640000
chr10	86600000	87280000
chr10	87400000	87600000
chr10	126960000	127200000
chr10	65600000	66680000
chr10	23000000	23240000
chr10	110920000	111200000
chr10	112360000	112680000
chr10	6680000	7520000
chr10	79960000	80680000
chr10	33400000	34960000
chr10	80520000	80800000
chr10	62560000	63640000
chr10	6200000	6440000
chr10	13160000	13600000
chr10	15200000	15400000
chr10	26000000	26600000
chr10	97640000	98080000
chr10	6440000	7520000
chr10	60520000	60960000
chr10	81200000	82000000
chr10	120960000	121320000
chr10	116880000	118320000
chr10	59880000	60160000
chr10	118160000	118400000
chr10	73040000	74080000
chr10	101960000	102760000
chr10	75560000	77040000
chr10	111200000	111560000
chr10	12760000	13120000
chr10	95440000	96320000
chr10	73040000	73640000
chr10	21160000	21800000
chr10	126600000	127440000
chr10	62720000	63080000
chr10	30640000	30920000
chr10	7880000	8080000
chr10	98760000	99160000
chr10	118360000	119120000
chr10	30360000	30600000
chr10	82400000	83080000
chr10	30240000	30640000
chr10	104640000	105080000
chr10	126600000	126840000
chr10	94840000	95120000
chr10	30960000	32160000
chr10	30040000	30240000
chr10	126280000	126520000
chr10	120280000	120840000
chr10	96400000	96920000
chr10	76560000	76840000
chr10	13640000	14920000
chr10	4960000	5200000
chr10	77080000	77840000
chr10	87000000	87280000
chr10	106120000	106360000
chr10	116000000	116920000
chr10	82400000	82800000
chr10	79120000	79440000
chr10	109240000	109440000
chr10	99920000	101120000
chr10	74920000	75560000
chr10	123400000	123600000
chr10	98080000	99520000
chr10	126200000	126520000
chr10	36280000	36480000
chr10	94640000	95120000
chr10	113280000	113680000
chr10	73800000	74920000
chr10	84160000	84520000
chr10	71200000	71840000
chr10	6040000	6480000
chr10	31040000	31320000
chr10	53360000	53640000
chr10	8400000	8840000
chr10	77040000	78920000
chr10	34400000	34880000
chr10	94320000	94600000
chr10	95720000	96120000
chr10	77440000	77680000
chr10	122160000	122680000
chr10	110640000	111200000
chr10	84520000	85760000
chr10	23760000	24840000
chr10	108920000	109480000
chr10	75240000	75440000
chr10	120960000	121840000
chr10	97440000	97760000
chr10	109440000	109680000
chr10	119360000	119600000
chr10	72280000	72560000
chr10	78320000	78760000
chr10	9640000	10240000
chr10	122880000	123080000
chr10	109160000	109480000
chr10	7520000	9360000
chr10	126680000	126960000
chr10	121680000	122120000
chr10	29600000	29920000
chr10	94600000	95280000
chr10	81320000	81560000
chr10	106800000	107440000
chr10	33360000	35360000
chr10	81280000	82120000
chr10	4880000	6000000
chr10	32320000	32680000
chr10	10240000	11080000
chr10	124360000	124760000
chr10	71160000	71360000
chr10	76080000	76640000
chr10	106440000	106640000
chr10	77080000	78800000
chr10	123400000	123680000
chr10	111640000	112080000
chr10	73040000	73520000
chr10	107720000	108360000
chr10	83640000	84160000
chr10	107440000	107680000
chr10	70080000	70760000
chr10	105120000	105320000
chr10	109680000	110640000
chr10	52840000	53840000
chr10	30920000	32320000
chr10	70960000	71880000
chr10	79560000	79800000
chr10	103880000	104240000
chr10	61360000	61840000
chr10	22840000	23240000
chr10	121320000	121680000
chr10	62560000	63080000
chr10	63040000	63480000
chr10	117600000	118160000
chr10	115960000	116200000
chr10	106040000	108360000
chr10	114400000	115320000
chr10	116920000	118200000
chr10	12080000	13360000
chr10	94560000	95480000
chr10	24840000	26000000
chr10	108920000	109160000
chr10	25520000	26000000
chr10	123680000	124000000
chr10	92640000	93720000
chr10	60520000	61400000
chr10	99520000	101440000
chr10	62720000	62920000
chr10	52880000	53240000
chr10	104440000	105160000
chr10	123720000	124360000
chr10	99400000	100200000
chr10	79040000	79440000
chr10	62200000	62440000
chr10	20760000	21040000
chr10	119120000	120320000
chr10	124000000	125320000
chr10	105640000	106040000
chr10	93040000	93720000
chr10	110800000	111200000
chr10	79960000	80200000
chr10	32440000	33320000
chr10	25400000	25960000
chr10	94360000	95480000
chr10	24840000	25520000
chr10	21800000	22280000
chr10	28040000	28520000
chr10	14520000	15040000
chr10	112640000	114080000
chr10	86720000	87280000
chr10	122680000	123400000
chr10	28920000	29640000
chr10	11360000	11840000
chr10	121640000	122680000
chr10	22280000	23360000
chr10	13160000	13400000
chr10	79200000	79440000
chr10	117160000	117400000
chr10	29760000	30640000
chr10	112840000	113920000
chr10	63640000	64040000
chr10	109680000	110280000
chr10	91000000	91440000
chr10	24840000	25400000
chr10	85640000	85880000
chr10	13600000	15040000
chr10	10240000	10520000
chr10	99920000	101400000
chr10	103880000	104480000
chr10	71360000	71920000
chr10	26920000	27600000
chr10	97080000	97440000
chr10	64160000	64880000
chr10	29920000	30640000
chr10	109680000	110080000
chr10	104560000	105120000
chr10	74120000	74800000
chr10	122680000	123000000
chr10	106400000	106800000
chr10	13800000	14200000
chr10	27200000	27600000
chr10	105320000	105640000
chr10	106120000	108320000
chr10	76200000	76400000
chr10	71280000	71920000
chr10	53200000	53400000
chr10	71920000	72200000
chr10	69400000	69600000
chr10	60960000	61400000
chr10	28720000	28920000
chr10	26600000	26880000
chr10	26920000	27200000
chr10	108440000	108920000
chr10	22280000	22600000
chr10	117040000	117560000
chr10	125320000	125720000
chr10	12280000	12840000
chr10	111600000	111880000
chr10	72640000	73040000
chr10	82480000	82800000
chr10	98320000	99120000
chr10	60160000	60520000
chr10	72400000	72640000
chr10	72720000	73040000
chr10	122760000	123400000
chr10	79560000	81160000
chr10	10240000	10640000
chr10	113960000	114200000
chr10	110640000	111600000
chr10	81280000	81720000
chr10	120280000	120760000
chr10	28920000	29400000
chr10	13800000	14560000
chr10	102040000	102760000
chr10	98080000	99400000
chr10	99880000	100200000
chr10	123080000	123400000
chr10	107600000	108000000
chr10	112400000	114120000
chr10	29880000	30160000
chr10	98120000	98320000
chr10	93720000	94320000
chr10	101560000	101840000
chr10	77800000	78080000
chr10	106360000	107520000
chr10	81120000	82080000
chr10	12080000	13200000
chr10	85080000	85640000
chr10	10240000	10720000
chr10	70960000	71200000
chr10	105320000	105520000
chr10	100480000	101000000
chr10	31120000	31640000
chr10	12440000	12760000
chr10	108400000	109680000
chr10	123080000	123280000
chr10	62520000	64040000
chr10	106960000	107480000
chr10	102360000	102680000
chr10	81280000	81840000
chr10	11840000	12200000
chr10	83600000	84520000
chr10	63040000	63640000
chr10	84520000	85080000
chr10	26280000	26520000
chr10	105160000	106000000
chr10	94400000	94640000
chr10	122200000	122560000
chr10	102840000	103560000
chr10	65600000	66160000
chr10	59840000	60080000
chr10	76040000	76360000
chr10	60960000	61240000
chr10	76000000	76880000
chr10	74680000	74880000
chr10	26000000	27240000
chr10	119240000	119480000
chr10	35360000	35920000
chr10	60000000	60520000
chr10	112040000	114200000
chr10	23600000	23840000
chr10	111640000	112400000
chr10	110240000	110640000
chr10	105320000	106040000
chr10	35600000	35840000
chr10	104480000	106000000
chr10	70480000	70720000
chr10	61800000	62520000
chr10	79960000	80840000
chr10	112760000	114200000
chr10	95800000	96080000
chr10	93800000	94360000
chr10	66160000	66760000
chr10	65600000	68000000
chr10	101560000	102280000
chr10	103920000	104160000
chr10	9360000	11560000
chr10	101960000	102680000
chr10	80200000	80520000
chr10	122680000	123720000
chr10	127120000	127320000
chr10	9360000	9640000
chr10	97440000	97640000
chr10	65080000	65400000
chr10	116560000	116920000
chr10	119480000	120280000
chr10	32320000	33360000
chr10	35000000	35240000
chr10	126960000	127440000
chr10	97720000	98080000
chr10	69640000	69840000
chr10	65000000	65440000
chr10	70240000	70480000
chr10	66680000	68000000
chr10	71440000	71640000
chr10	100200000	101120000
chr10	112080000	112360000
chr10	95640000	96120000
chr10	123000000	123680000
chr10	121680000	123720000
chr10	13640000	14560000
chr10	114400000	115080000
chr10	64560000	64840000
chr10	32760000	33040000
chr10	73800000	74000000
chr10	64880000	65600000
chr10	69600000	70760000
chr10	109680000	110360000
chr10	114200000	115400000
chr10	13400000	13640000
chr10	115040000	115280000
chr10	118360000	118560000
chr10	27800000	28040000
chr10	75160000	75440000
chr10	34000000	34360000
chr10	70160000	70520000
chr10	83040000	83640000
chr10	112680000	113960000
chr10	122680000	124000000
chr10	52800000	53440000
chr10	53400000	53760000
chr10	84520000	85680000
chr10	71920000	72640000
chr10	102280000	102720000
chr10	21800000	23360000
chr10	114880000	115160000
chr10	119600000	119840000
chr10	112840000	113040000
chr10	118640000	118840000
chr10	118960000	119160000
chr10	31640000	32120000
chr10	118200000	118960000
chr10	117560000	118040000
chr10	75880000	77040000
chr10	64160000	65600000
chr10	28800000	29640000
chr10	125320000	126160000
chr10	53240000	53800000
chr10	116160000	116920000
chr10	71360000	71760000
chr10	26280000	26640000
chr10	96360000	96960000
chr10	31000000	31600000
chr10	28800000	29960000
chr10	102440000	102640000
chr10	100600000	100920000
chr10	70080000	70960000
chr10	10640000	11040000
chr10	119320000	119880000
chr10	95280000	95480000
chr10	35520000	35880000
chr10	98080000	99120000
chr10	9360000	10240000
chr10	64960000	65280000
chr10	115360000	116040000
chr10	70120000	71400000
chr10	61400000	61680000
chr10	75520000	75960000
chr10	78040000	78320000
chr10	27600000	28800000
chr10	101120000	101480000
chr10	74080000	74960000
chr10	120960000	121200000
chr10	71920000	73040000
chr10	103360000	103560000
chr10	113040000	113280000
chr10	96320000	97120000
chr10	63800000	64000000
chr10	92640000	94240000
chr10	95440000	95640000
chr10	126840000	127400000
chr10	110320000	111600000
chr10	108160000	108400000
chr10	110400000	110640000
chr10	28160000	28680000
chr10	11520000	11840000
chr10	24280000	24480000
chr10	107400000	107600000
chr10	92800000	93040000
chr10	78880000	79560000
chr10	118560000	118960000
chr10	10240000	11320000
chr10	73640000	74000000
chr10	122760000	123080000
chr10	106360000	107640000
chr10	6120000	6480000
chr10	99520000	100200000
chr10	6800000	7480000
chr10	61840000	62200000
chr10	79760000	81080000
chr10	101120000	101400000
chr10	91600000	92640000
chr10	99480000	99920000
chr10	9360000	11360000
chr10	21120000	21600000
chr10	97440000	98080000
chr10	114240000	115200000
chr10	96920000	97440000
chr10	32080000	32360000
chr10	115640000	115920000
chr10	23440000	24840000
chr10	70760000	71280000
chr10	82160000	82400000
chr10	120040000	120280000
chr10	102760000	104360000
chr10	30040000	30640000
chr10	69320000	69560000
chr10	76080000	76560000
chr10	23400000	23600000
chr10	102880000	103360000
chr10	101440000	102000000
chr10	8600000	8840000
chr10	92320000	92520000
chr10	77840000	78760000
chr10	93800000	94560000
chr10	64960000	65360000
chr10	7880000	8200000
chr10	8200000	9320000
chr10	99400000	99920000
chr10	114320000	114560000
chr10	29080000	29320000
chr10	90760000	90960000
chr10	114560000	114920000
chr10	23800000	24680000
chr10	103560000	103880000
chr10	34360000	34720000
chr10	125800000	126120000
chr10	7560000	7760000
chr10	95120000	95400000
chr10	78400000	78640000
chr10	95560000	96320000
chr10	73640000	74120000
chr10	102720000	103880000
chr10	35920000	37120000
chr10	120240000	120520000
chr10	61920000	62200000
chr10	30120000	30920000
chr10	107640000	108360000
chr10	22600000	23320000
chr10	6480000	6720000
chr10	74120000	75480000
chr10	84520000	85880000
chr10	36480000	36680000
chr10	84720000	85640000
chr10	34960000	35360000
chr10	11080000	11360000
chr10	124000000	124760000
chr10	122120000	122600000
chr10	82400000	83640000
chr10	8120000	9200000
chr10	115440000	115640000
chr10	6120000	7520000
chr10	102960000	103240000
chr10	84520000	84720000
chr10	120840000	121320000
chr10	108880000	109680000
chr10	68000000	68680000
chr10	107520000	107960000
chr10	112840000	113600000
chr10	106320000	107720000
chr10	79800000	80880000
chr10	77040000	79560000
chr10	112360000	112800000
chr10	93160000	93440000
chr10	118320000	118960000
chr10	120840000	121640000
chr10	99120000	99520000
chr10	29800000	30040000
chr10	24480000	24680000
chr10	124920000	125280000
chr10	8040000	9320000
chr10	96320000	97440000
chr10	33560000	34960000
chr10	9360000	11440000
chr10	72160000	73040000
chr10	106720000	107520000
chr10	81200000	82120000
chr10	10800000	11000000
chr10	77800000	78320000
chr10	31320000	31600000
chr10	74120000	74680000
chr10	82800000	83040000
chr10	109680000	111600000
chr10	116920000	117640000
chr10	29160000	29800000
chr10	60240000	60520000
chr10	124760000	125320000
chr10	61400000	62480000
chr10	9360000	11840000
chr10	125720000	126160000
chr10	116200000	116600000
chr10	23560000	24840000
chr10	107960000	108360000
chr10	28840000	29800000
chr10	28920000	29160000
chr10	7880000	9360000
chr10	60680000	61000000
chr10	120520000	120800000
chr10	26000000	26960000
chr10	81160000	81800000
chr10	64040000	64880000
