chr11	35480000	36520000
chr11	17360000	17560000
chr11	114160000	114480000
chr11	11400000	11640000
chr11	28720000	29360000
chr11	34160000	34400000
chr11	9600000	10400000
chr11	29400000	30360000
chr11	82400000	83520000
chr11	8280000	8600000
chr11	122400000	122760000
chr11	58920000	59280000
chr11	11160000	11760000
chr11	91280000	91920000
chr11	126920000	127240000
chr11	115640000	115840000
chr11	34080000	34400000
chr11	11040000	11240000
chr11	126160000	127920000
chr11	108200000	108520000
chr11	28720000	29120000
chr11	57800000	58040000
chr11	104440000	105760000
chr11	42360000	42560000
chr11	79160000	80080000
chr11	107440000	108120000
chr11	114880000	115360000
chr11	11840000	12080000
chr11	74520000	75080000
chr11	70320000	70640000
chr11	37760000	38240000
chr11	19960000	20160000
chr11	113920000	114160000
chr11	73840000	74320000
chr11	47200000	47680000
chr11	124960000	125160000
chr11	73080000	73600000
chr11	122440000	122920000
chr11	122040000	122240000
chr11	83200000	83440000
chr11	18280000	18760000
chr11	130280000	130800000
chr11	106000000	106600000
chr11	13480000	14320000
chr11	115360000	115840000
chr11	73640000	74320000
chr11	9960000	10320000
chr11	30960000	32480000
chr11	68360000	68840000
chr11	61080000	61520000
chr11	77320000	78280000
chr11	122720000	123480000
chr11	46840000	47240000
chr11	123920000	124240000
chr11	29600000	30320000
chr11	131560000	132920000
chr11	6800000	7080000
chr11	117960000	118960000
chr11	24520000	26280000
chr11	108320000	108520000
chr11	27200000	27520000
chr11	131560000	132000000
chr11	65840000	66120000
chr11	110560000	111120000
chr11	62840000	63040000
chr11	64600000	65320000
chr11	44080000	44560000
chr11	70800000	71160000
chr11	72600000	72800000
chr11	119320000	120040000
chr11	102120000	102680000
chr11	130800000	131560000
chr11	102560000	102840000
chr11	15080000	15280000
chr11	35040000	35520000
chr11	35600000	36360000
chr11	107400000	108040000
chr11	4240000	5120000
chr11	71240000	72200000
chr11	63760000	63960000
chr11	80720000	80960000
chr11	14520000	15120000
chr11	46160000	46680000
chr11	20720000	21360000
chr11	28160000	28600000
chr11	66240000	66640000
chr11	107840000	108560000
chr11	125480000	125720000
chr11	106400000	106600000
chr11	121480000	122440000
chr11	66240000	66760000
chr11	13480000	13680000
chr11	75000000	75280000
chr11	113440000	113640000
chr11	73520000	74320000
chr11	68840000	69520000
chr11	75080000	75280000
chr11	100440000	100840000
chr11	102400000	102640000
chr11	73880000	74240000
chr11	128840000	129280000
chr11	36720000	37480000
chr11	110840000	111080000
chr11	27800000	28160000
chr11	75080000	75600000
chr11	8640000	8920000
chr11	106680000	106880000
chr11	47840000	48160000
chr11	133200000	133400000
chr11	71680000	71920000
chr11	16760000	17360000
chr11	24720000	25320000
chr11	26320000	26640000
chr11	82600000	83000000
chr11	45840000	46400000
chr11	120320000	121080000
chr11	76720000	77320000
chr11	113720000	114200000
chr11	43360000	43600000
chr11	44560000	45880000
chr11	110280000	111400000
chr11	26320000	27200000
chr11	19560000	19800000
chr11	65440000	65760000
chr11	60560000	61000000
chr11	108960000	109280000
chr11	43880000	44560000
chr11	20720000	21560000
chr11	121080000	122440000
chr11	57960000	58240000
chr11	19560000	19960000
chr11	124760000	126120000
chr11	124800000	125480000
chr11	16800000	18040000
chr11	106880000	107080000
chr11	127320000	127800000
chr11	14280000	14560000
chr11	9280000	9480000
chr11	83520000	83720000
chr11	81280000	82240000
chr11	72160000	73480000
chr11	10760000	11920000
chr11	60040000	60520000
chr11	35960000	36160000
chr11	27720000	28760000
chr11	60520000	61200000
chr11	82400000	83000000
chr11	112840000	113160000
chr11	98920000	99640000
chr11	130040000	130280000
chr11	17560000	18120000
chr11	20720000	20920000
chr11	26320000	26720000
chr11	100920000	101160000
chr11	46360000	46680000
chr11	75520000	76400000
chr11	12480000	12680000
chr11	126880000	127360000
chr11	121560000	122040000
chr11	20640000	22200000
chr11	18080000	18920000
chr11	18280000	18680000
chr11	79160000	80960000
chr11	75240000	75600000
chr11	69000000	69240000
chr11	63520000	64040000
chr11	35600000	36520000
chr11	94840000	95520000
chr11	68240000	68840000
chr11	5120000	5960000
chr11	8000000	8680000
chr11	128200000	128560000
chr11	124760000	125760000
chr11	84440000	85320000
chr11	8200000	8400000
chr11	46960000	47200000
chr11	33440000	33720000
chr11	23320000	23520000
chr11	19080000	19280000
chr11	13200000	13480000
chr11	15280000	15640000
chr11	47640000	47880000
chr11	68360000	68640000
chr11	124800000	125320000
chr11	12320000	13520000
chr11	13680000	13920000
chr11	42760000	43160000
chr11	13680000	14280000
chr11	72240000	72440000
chr11	31040000	32480000
chr11	32840000	33160000
chr11	12680000	12920000
chr11	82960000	83520000
chr11	87640000	87840000
chr11	65080000	65400000
chr11	67480000	67760000
chr11	13920000	14280000
chr11	58040000	58240000
chr11	68640000	68840000
chr11	105920000	107400000
chr11	43520000	43880000
chr11	79160000	79440000
chr11	74320000	74960000
chr11	118520000	118840000
chr11	61160000	62120000
chr11	108520000	109840000
chr11	133080000	133400000
chr11	9520000	9720000
chr11	101720000	102160000
chr11	100840000	101960000
chr11	110600000	110840000
chr11	34920000	36520000
chr11	121080000	121480000
chr11	124240000	124480000
chr11	82040000	82320000
chr11	122920000	123440000
chr11	84240000	84480000
chr11	62640000	63440000
chr11	112440000	113160000
chr11	106880000	107360000
chr11	75240000	75520000
chr11	120560000	120760000
chr11	9160000	9520000
chr11	29640000	29840000
chr11	70240000	71160000
chr11	74480000	75000000
chr11	111360000	111960000
chr11	26720000	27200000
chr11	37120000	37440000
chr11	59280000	60520000
chr11	87360000	87560000
chr11	58320000	58920000
chr11	116080000	116560000
chr11	130040000	130800000
chr11	59320000	60040000
chr11	75600000	75920000
chr11	34920000	35520000
chr11	25320000	25800000
chr11	14520000	15280000
chr11	91920000	92640000
chr11	61640000	61920000
chr11	44200000	44400000
chr11	35040000	35280000
chr11	26840000	27120000
chr11	74280000	74480000
chr11	118880000	119200000
chr11	90280000	91080000
chr11	85520000	86560000
chr11	73600000	74520000
chr11	33320000	33800000
chr11	48320000	49480000
chr11	62080000	62640000
chr11	34520000	36520000
chr11	41480000	43320000
chr11	78800000	79160000
chr11	70120000	71240000
chr11	29440000	29640000
chr11	71680000	72160000
chr11	131560000	131800000
chr11	46360000	47880000
chr11	64880000	65320000
chr11	6960000	7880000
chr11	76800000	77000000
chr11	73680000	75000000
chr11	125760000	126160000
chr11	66120000	67160000
chr11	66080000	66800000
chr11	79400000	79600000
chr11	47400000	47640000
chr11	31000000	31240000
chr11	101720000	101920000
chr11	24480000	25760000
chr11	83520000	84280000
chr11	112560000	112880000
chr11	130920000	131120000
chr11	61520000	62120000
chr11	19080000	19600000
chr11	20160000	20400000
chr11	12040000	12320000
chr11	101920000	102120000
chr11	38520000	38720000
chr11	74320000	74600000
chr11	19560000	20160000
chr11	8640000	9600000
chr11	40720000	41200000
chr11	127320000	127880000
chr11	86160000	86520000
chr11	43320000	43920000
chr11	8160000	8680000
chr11	59440000	60040000
chr11	108000000	108520000
chr11	70280000	70640000
chr11	61520000	61960000
chr11	8880000	9600000
chr11	114640000	114880000
chr11	123800000	124480000
chr11	17600000	18840000
chr11	107440000	107640000
chr11	64000000	64840000
chr11	22880000	23080000
chr11	38880000	40280000
chr11	58400000	58920000
chr11	128000000	128720000
chr11	117120000	118000000
chr11	18560000	18760000
chr11	73000000	73480000
chr11	113160000	113720000
chr11	109520000	109720000
chr11	132000000	132920000
chr11	20360000	20640000
chr11	15440000	15640000
chr11	33080000	33840000
chr11	102120000	103000000
chr11	30280000	30960000
chr11	67360000	67720000
chr11	31520000	31800000
chr11	56600000	57080000
chr11	72160000	73600000
chr11	71920000	72160000
chr11	32360000	32840000
chr11	99640000	100440000
chr11	32480000	32920000
chr11	72200000	73080000
chr11	116600000	117120000
chr11	126280000	126880000
chr11	132120000	132920000
chr11	122920000	123160000
chr11	44560000	44960000
chr11	22320000	22680000
chr11	128960000	129200000
chr11	118640000	118920000
chr11	42560000	42760000
chr11	68920000	69520000
chr11	70120000	70800000
chr11	129240000	129680000
chr11	67240000	67880000
chr11	69240000	69440000
chr11	33440000	33640000
chr11	114200000	114600000
chr11	44600000	45120000
chr11	6400000	6640000
chr11	69480000	70160000
chr11	129760000	130280000
chr11	23080000	23320000
chr11	42680000	43320000
chr11	62640000	63520000
chr11	127880000	128840000
chr11	92920000	93440000
chr11	46640000	47200000
chr11	110280000	111160000
chr11	115200000	115400000
chr11	45840000	46680000
chr11	33840000	34080000
chr11	86040000	86560000
chr11	86640000	87000000
chr11	112040000	113720000
chr11	125320000	125760000
chr11	103480000	105800000
chr11	101320000	101720000
chr11	11920000	12120000
chr11	103560000	103760000
chr11	119200000	120160000
chr11	119320000	120200000
chr11	68920000	69240000
chr11	123400000	123600000
chr11	24520000	26000000
chr11	19000000	20400000
chr11	30360000	30680000
chr11	80040000	80760000
chr11	34560000	34920000
chr11	110040000	110320000
chr11	92640000	92920000
chr11	68360000	68560000
chr11	76400000	76760000
chr11	81240000	82360000
chr11	93000000	93200000
chr11	73640000	73920000
chr11	10880000	11840000
chr11	64040000	64600000
chr11	46400000	46600000
chr11	132320000	132920000
chr11	9640000	10800000
chr11	64080000	64440000
chr11	27600000	29400000
chr11	93520000	94240000
chr11	81240000	82040000
chr11	66120000	67240000
chr11	12960000	13200000
chr11	65440000	65680000
chr11	18080000	19000000
chr11	6800000	8000000
chr11	58400000	58680000
chr11	13200000	13400000
chr11	98280000	98640000
chr11	38240000	38800000
chr11	23520000	24400000
chr11	10560000	10760000
chr11	67800000	68840000
chr11	123600000	124760000
chr11	15640000	16680000
chr11	18040000	18840000
chr11	26840000	27200000
chr11	7160000	7440000
chr11	6200000	6800000
chr11	116160000	116600000
chr11	113240000	113440000
chr11	64560000	64920000
chr11	118440000	118920000
chr11	109800000	110320000
chr11	73080000	73440000
chr11	65360000	65840000
chr11	112440000	112840000
chr11	84240000	85320000
chr11	42040000	42520000
chr11	70040000	70240000
chr11	12360000	12680000
chr11	31640000	31840000
chr11	119520000	120000000
chr11	120200000	121080000
chr11	23080000	23560000
chr11	36960000	37480000
chr11	132000000	132320000
chr11	33160000	33360000
chr11	42080000	42360000
chr11	12960000	13520000
chr11	114880000	115200000
chr11	47200000	47880000
chr11	19280000	19560000
chr11	81000000	82360000
chr11	27520000	27720000
chr11	22320000	22880000
chr11	108840000	109280000
chr11	111720000	111960000
chr11	18280000	18560000
chr11	106600000	106880000
chr11	21360000	22120000
chr11	26320000	27520000
chr11	83720000	84240000
chr11	108560000	109280000
chr11	102400000	102920000
chr11	77000000	77280000
chr11	110320000	110600000
chr11	62640000	64000000
chr11	61000000	61200000
chr11	104480000	105440000
chr11	100440000	100640000
chr11	43880000	44120000
chr11	58400000	58840000
chr11	7040000	8000000
chr11	107400000	107920000
chr11	58320000	59280000
chr11	114560000	116600000
chr11	73440000	73640000
chr11	25800000	26280000
chr11	101240000	102040000
chr11	105440000	105760000
chr11	65320000	66120000
chr11	35640000	35840000
chr11	32480000	32800000
chr11	22360000	22560000
chr11	31240000	32320000
chr11	103520000	104360000
chr11	59560000	59920000
chr11	115160000	116560000
chr11	5960000	6400000
chr11	80040000	80960000
chr11	111400000	111880000
chr11	22920000	24520000
chr11	32360000	32920000
chr11	122720000	122920000
chr11	33520000	33800000
chr11	75600000	76120000
chr11	67800000	68240000
chr11	13680000	14520000
chr11	19080000	20160000
chr11	59640000	59920000
chr11	36960000	37240000
chr11	76440000	76640000
chr11	115360000	116600000
chr11	25960000	26320000
chr11	70120000	71160000
chr11	68000000	68240000
chr11	41480000	42680000
chr11	33800000	34520000
chr11	66120000	67400000
chr11	114320000	114560000
chr11	107920000	108200000
chr11	66800000	67160000
chr11	101960000	102400000
chr11	22160000	22880000
chr11	71240000	71600000
chr11	114160000	116640000
chr11	133360000	133720000
chr11	80960000	81280000
chr11	12320000	12960000
chr11	57080000	57560000
chr11	108560000	108840000
chr11	40840000	41240000
chr11	34520000	35480000
chr11	18040000	18280000
chr11	111960000	113720000
chr11	32920000	34400000
chr11	65400000	66120000
chr11	71600000	72200000
chr11	115360000	116160000
chr11	110680000	110920000
chr11	18840000	19080000
chr11	37240000	37480000
chr11	131120000	131560000
chr11	118000000	119200000
chr11	60520000	61920000
chr11	59400000	60480000
chr11	77320000	77800000
chr11	70240000	70840000
chr11	71640000	72440000
chr11	82680000	82920000
chr11	62640000	63200000
chr11	62120000	62480000
chr11	125560000	125760000
chr11	127320000	127680000
chr11	8040000	8880000
chr11	75080000	76280000
chr11	104880000	105080000
chr11	44560000	45360000
chr11	27200000	27600000
chr11	60640000	61000000
chr11	32400000	32600000
chr11	40360000	40840000
chr11	111400000	111720000
chr11	117280000	117680000
chr11	126880000	127880000
chr11	28720000	28920000
chr11	28920000	29120000
chr11	40320000	41480000
chr11	67600000	68280000
chr11	10760000	12080000
chr11	91480000	91680000
chr11	123640000	123920000
chr11	98640000	98840000
chr11	64880000	65080000
chr11	48320000	49600000
chr11	77760000	78280000
chr11	15240000	16800000
chr11	118200000	118440000
chr11	59280000	59480000
chr11	109800000	110040000
chr11	45120000	45360000
chr11	72400000	73000000
chr11	42600000	43320000
chr11	109280000	109760000
chr11	129760000	130040000
chr11	129360000	129600000
chr11	57080000	57320000
chr11	41520000	42600000
chr11	110320000	111760000
chr11	74600000	75000000
chr11	121240000	121480000
chr11	117440000	117680000
chr11	68840000	70080000
chr11	32040000	32280000
chr11	103160000	103360000
chr11	120360000	120840000
chr11	103000000	105880000
chr11	124920000	125320000
chr11	130360000	130760000
chr11	83560000	84080000
chr11	57560000	58320000
chr11	46640000	46880000
chr11	45360000	45840000
chr11	101160000	101720000
chr11	62760000	63240000
chr11	66440000	66640000
chr11	7800000	8000000
chr11	102960000	103520000
chr11	115360000	116080000
chr11	21560000	22120000
chr11	62800000	63360000
chr11	114600000	115360000
chr11	113160000	113640000
chr11	94240000	94680000
chr11	23560000	24480000
chr11	78360000	78800000
chr11	123600000	124520000
chr11	17360000	18040000
chr11	124480000	124800000
chr11	61200000	61440000
chr11	57640000	58320000
chr11	76440000	77360000
chr11	94960000	95520000
chr11	10920000	11240000
chr11	122920000	123600000
chr11	72800000	73080000
chr11	10360000	10800000
chr11	69680000	70040000
chr11	117960000	118440000
chr11	78280000	81000000
chr11	65120000	65840000
chr11	23040000	24440000
chr11	132960000	133320000
chr11	72440000	73520000
chr11	78320000	79160000
chr11	61920000	62120000
chr11	41240000	41480000
chr11	64200000	64440000
chr11	11840000	12320000
chr11	8920000	9200000
chr11	72720000	72960000
chr11	71240000	71680000
chr11	75000000	75520000
chr11	27280000	27480000
chr11	107080000	107320000
chr11	91200000	91640000
chr11	66800000	67280000
chr11	36960000	37160000
chr11	64840000	66120000
chr11	75000000	76240000
chr11	77520000	77720000
chr11	108120000	108560000
chr11	72520000	73000000
chr11	38240000	38520000
chr11	82400000	82600000
chr11	111160000	111400000
chr11	93440000	94240000
chr11	32880000	33880000
chr11	31400000	31880000
chr11	92960000	93280000
chr11	105960000	106920000
chr11	16800000	17120000
chr11	4240000	4560000
chr11	16800000	17600000
chr11	29440000	30960000
chr11	46640000	47920000
chr11	6400000	6760000
chr11	73480000	74480000
chr11	67280000	68000000
chr11	11240000	11640000
chr11	37440000	38840000
chr11	123120000	123400000
chr11	128840000	129760000
chr11	11240000	11800000
chr11	7080000	7840000
chr11	85320000	86560000
chr11	109280000	109520000
chr11	103480000	104480000
chr11	30640000	30920000
chr11	41520000	42040000
chr11	75240000	76400000
chr11	118480000	118680000
chr11	31080000	32360000
chr11	79160000	79680000
chr11	112080000	113200000
