chr17	86640000	86820000
chr17	50680000	50780000
chr17	28680000	28960000
chr17	7420000	7820000
chr17	10800000	11080000
chr17	48460000	48620000
chr17	84460000	84700000
chr17	29600000	30600000
chr17	82860000	82960000
chr17	71000000	71260000
chr17	36480000	36800000
chr17	49920000	50280000
chr17	48920000	49240000
chr17	45720000	46160000
chr17	53880000	54000000
chr17	64740000	64900000
chr17	64620000	64760000
chr17	72880000	73100000
chr17	8600000	8980000
chr17	11620000	11900000
chr17	50980000	51820000
chr17	4980000	5400000
chr17	12040000	12220000
chr17	44760000	45080000
chr17	67480000	67600000
chr17	69480000	69600000
chr17	84640000	84800000
chr17	86500000	86920000
chr17	12380000	12740000
chr17	49500000	49880000
chr17	75080000	75560000
chr17	58560000	58880000
chr17	24920000	25180000
chr17	87680000	87980000
chr17	79360000	79560000
chr17	57780000	58480000
chr17	89800000	89920000
chr17	63520000	64600000
chr17	47600000	47700000
chr17	13840000	13980000
chr17	36420000	36760000
chr17	68860000	69400000
chr17	16700000	16800000
chr17	69520000	70360000
chr17	74760000	75080000
chr17	11080000	11620000
chr17	67840000	68180000
chr17	34120000	34240000
chr17	65580000	65800000
chr17	23540000	23740000
chr17	53560000	53700000
chr17	73180000	73280000
chr17	73740000	73900000
chr17	25180000	25280000
chr17	14980000	15520000
chr17	79860000	80020000
chr17	22880000	23140000
chr17	73300000	73500000
chr17	45440000	46180000
chr17	50840000	52500000
chr17	84780000	85120000
chr17	73100000	73300000
chr17	35160000	35280000
chr17	84460000	84620000
chr17	12700000	13020000
chr17	67840000	68880000
chr17	75580000	75940000
chr17	34240000	34420000
chr17	34420000	34580000
chr17	74320000	74720000
chr17	52180000	52380000
chr17	29100000	29260000
chr17	19840000	19960000
chr17	85160000	85640000
chr17	71240000	71520000
chr17	57760000	58560000
chr17	56720000	57080000
chr17	31280000	31520000
chr17	53480000	53760000
chr17	28180000	28340000
chr17	36460000	36680000
chr17	89740000	90040000
chr17	74180000	74340000
chr17	47700000	47860000
chr17	24440000	24720000
chr17	55300000	55440000
chr17	32520000	32720000
chr17	73960000	74180000
chr17	4520000	4760000
chr17	11500000	11620000
chr17	79600000	79860000
chr17	83280000	83500000
chr17	29660000	29900000
chr17	23200000	23540000
chr17	44740000	45400000
chr17	79140000	79360000
chr17	11860000	11980000
chr17	36140000	36240000
chr17	88760000	88940000
chr17	86120000	86500000
chr17	85640000	86100000
chr17	62560000	62880000
chr17	46240000	46420000
chr17	45740000	46040000
chr17	54360000	54660000
chr17	4760000	4940000
chr17	48460000	48920000
chr17	32040000	32240000
chr17	44420000	45400000
chr17	50020000	50120000
chr17	87020000	87260000
chr17	46900000	47020000
chr17	30620000	31000000
chr17	46240000	46340000
chr17	71880000	72800000
chr17	36260000	36820000
chr17	85100000	85640000
chr17	32280000	32380000
chr17	27820000	28180000
chr17	80580000	81100000
chr17	87680000	88020000
chr17	83880000	84200000
chr17	32400000	32540000
chr17	30720000	30980000
chr17	79360000	79500000
chr17	50260000	50820000
chr17	50800000	51000000
chr17	89300000	89660000
chr17	32980000	33640000
chr17	42300000	42600000
chr17	66100000	66540000
chr17	25480000	25720000
chr17	85200000	85300000
chr17	7300000	7920000
chr17	62880000	63500000
chr17	24720000	24940000
chr17	72360000	72480000
chr17	32720000	32920000
chr17	36300000	36440000
chr17	30820000	30960000
chr17	21140000	21300000
chr17	55480000	55640000
chr17	42880000	43660000
chr17	30460000	30600000
chr17	55140000	55260000
chr17	26000000	26120000
chr17	44160000	45440000
chr17	35920000	36140000
chr17	87680000	87840000
chr17	20700000	20800000
chr17	14100000	14240000
chr17	63320000	63480000
chr17	66560000	67640000
chr17	47360000	47600000
chr17	50820000	51180000
chr17	70420000	70660000
chr17	25840000	25980000
chr17	9760000	10240000
chr17	69680000	69780000
chr17	65580000	65840000
chr17	68860000	69120000
chr17	9020000	9160000
chr17	23220000	23320000
chr17	55060000	55480000
chr17	44140000	44260000
chr17	45380000	45560000
chr17	50500000	50680000
chr17	43700000	43800000
chr17	83880000	84460000
chr17	88440000	88540000
chr17	80460000	80580000
chr17	46220000	46460000
chr17	33900000	34040000
chr17	30020000	30220000
chr17	73300000	73900000
chr17	22700000	22800000
chr17	47760000	48120000
chr17	75380000	75560000
chr17	33620000	33820000
chr17	89660000	90580000
chr17	29700000	29880000
chr17	78180000	78480000
chr17	30980000	31140000
chr17	65580000	66140000
chr17	15500000	15620000
chr17	45460000	45720000
chr17	28560000	28680000
chr17	84460000	84660000
chr17	70800000	70980000
chr17	63860000	63960000
chr17	42840000	42960000
chr17	26800000	26900000
chr17	31680000	32040000
chr17	42980000	43260000
chr17	71660000	71800000
chr17	64900000	65060000
chr17	73560000	73700000
chr17	68960000	69120000
chr17	5920000	6060000
chr17	65060000	65320000
chr17	26260000	26660000
chr17	64480000	64600000
chr17	89140000	89240000
chr17	66940000	67060000
chr17	29700000	29800000
chr17	5420000	5760000
chr17	54100000	54200000
chr17	73300000	73760000
chr17	31140000	31260000
chr17	8620000	8800000
chr17	47700000	48140000
chr17	56760000	57000000
chr17	40820000	40920000
chr17	71640000	71840000
chr17	65360000	65480000
chr17	29960000	30520000
chr17	32040000	32280000
chr17	79080000	79600000
chr17	68640000	68740000
chr17	7460000	7580000
chr17	81160000	81700000
chr17	75400000	75500000
chr17	27540000	27840000
chr17	6940000	7300000
chr17	52540000	53460000
chr17	14980000	15100000
chr17	43260000	43660000
chr17	45440000	45680000
chr17	57060000	57240000
chr17	58460000	58580000
chr17	81040000	81180000
chr17	57200000	57360000
chr17	13980000	14100000
chr17	4260000	4380000
chr17	90600000	91120000
chr17	44480000	44600000
chr17	90300000	90440000
chr17	33420000	33620000
chr17	54340000	54460000
chr17	34040000	34240000
chr17	43500000	43660000
chr17	42500000	42600000
chr17	88640000	90600000
chr17	80000000	80240000
chr17	20480000	20580000
chr17	45460000	45580000
chr17	10880000	10980000
chr17	46120000	46220000
chr17	84860000	84960000
chr17	90480000	90600000
chr17	32020000	32340000
chr17	72320000	72520000
chr17	7840000	7940000
chr17	88060000	88560000
chr17	53420000	53860000
chr17	44260000	44440000
chr17	30760000	30980000
chr17	7080000	7300000
chr17	81480000	81600000
chr17	87700000	87800000
chr17	81400000	81660000
chr17	28320000	28680000
chr17	72800000	73300000
chr17	28160000	28580000
chr17	51300000	51400000
chr17	5000000	5200000
chr17	70420000	70700000
chr17	47720000	48240000
chr17	73540000	73640000
chr17	72880000	73300000
chr17	36880000	37100000
chr17	13980000	14220000
chr17	71540000	71640000
chr17	83900000	84020000
chr17	79220000	79360000
chr17	66760000	66920000
chr17	40860000	40960000
chr17	58680000	58800000
chr17	31520000	31680000
chr17	28320000	28580000
chr17	82740000	82860000
chr17	15780000	16940000
chr17	63860000	64340000
chr17	9160000	9760000
chr17	29360000	29560000
chr17	31760000	31860000
chr17	54100000	54240000
chr17	73500000	73760000
chr17	71600000	71920000
chr17	78620000	78880000
chr17	28740000	28940000
chr17	33840000	34040000
chr17	52540000	53420000
chr17	43660000	43880000
chr17	83140000	83260000
chr17	21560000	21720000
chr17	79700000	79840000
chr17	66680000	67360000
chr17	47700000	48420000
chr17	47000000	47360000
chr17	13020000	13440000
chr17	29260000	29380000
chr17	82580000	82680000
chr17	53460000	53720000
chr17	87100000	87260000
chr17	50340000	50780000
chr17	63300000	63420000
chr17	21120000	21240000
chr17	92740000	92860000
chr17	55080000	55220000
chr17	9920000	10040000
chr17	88660000	88780000
chr17	29600000	29900000
chr17	64040000	64140000
chr17	72580000	72780000
chr17	5400000	6040000
chr17	78220000	78340000
chr17	72920000	73040000
chr17	25280000	25500000
chr17	53740000	53860000
chr17	88640000	88960000
chr17	5760000	6040000
chr17	11680000	11860000
chr17	33700000	33820000
chr17	87840000	87960000
chr17	86900000	87040000
chr17	20920000	21060000
chr17	85820000	85940000
chr17	55500000	55960000
chr17	42620000	42800000
chr17	15560000	15700000
chr17	89420000	89520000
chr17	44600000	44720000
chr17	44760000	45260000
chr17	30520000	30620000
chr17	10380000	10500000
chr17	48520000	48620000
chr17	67640000	67860000
chr17	74720000	75080000
chr17	54040000	54360000
chr17	29900000	30520000
chr17	80220000	80580000
chr17	87260000	87600000
chr17	8240000	8600000
chr17	24940000	25060000
chr17	51960000	52180000
chr17	43640000	44160000
chr17	24120000	24440000
chr17	36820000	37160000
chr17	28400000	28540000
chr17	78600000	78800000
chr17	68880000	69080000
chr17	25280000	25820000
chr17	47860000	48100000
chr17	25480000	25760000
chr17	10320000	10800000
chr17	25340000	25500000
chr17	67240000	67340000
chr17	57380000	57480000
chr17	13020000	13900000
chr17	29040000	29160000
chr17	27020000	27140000
chr17	63660000	63760000
chr17	50060000	50240000
chr17	27140000	27520000
chr17	85300000	85400000
chr17	8980000	9160000
chr17	55520000	55660000
chr17	66220000	66500000
chr17	73100000	73200000
chr17	82980000	83260000
chr17	7320000	7860000
chr17	66540000	66680000
chr17	90080000	90460000
chr17	67360000	67480000
chr17	48920000	49120000
chr17	37100000	37200000
chr17	69980000	70200000
chr17	29900000	30600000
chr17	48240000	48420000
chr17	42360000	42460000
chr17	10840000	11140000
chr17	86520000	86640000
chr17	63000000	63480000
chr17	84020000	84200000
chr17	28080000	28180000
chr17	83260000	83860000
chr17	10200000	10300000
chr17	24940000	25100000
chr17	6940000	7080000
chr17	8800000	8940000
chr17	57680000	57780000
chr17	78960000	79600000
chr17	5200000	5360000
chr17	34840000	34940000
chr17	10740000	10840000
chr17	78440000	78580000
chr17	38860000	38960000
chr17	70720000	70980000
chr17	85100000	86100000
chr17	65320000	65500000
chr17	21420000	21600000
chr17	34660000	34800000
chr17	74480000	74720000
chr17	15560000	15780000
chr17	11620000	12020000
chr17	11400000	11500000
chr17	65800000	66120000
chr17	67840000	69380000
chr17	53480000	53940000
chr17	10320000	12020000
chr17	70360000	70760000
chr17	43880000	44140000
chr17	85440000	85640000
chr17	51560000	51660000
chr17	87260000	87980000
chr17	61120000	61220000
chr17	63500000	65580000
chr17	53960000	54360000
chr17	48120000	48260000
chr17	32760000	32880000
chr17	50000000	50240000
chr17	72620000	72720000
chr17	7300000	7440000
chr17	83320000	83860000
chr17	71900000	72280000
chr17	78200000	78760000
chr17	27520000	27640000
chr17	62640000	62780000
chr17	81460000	81660000
chr17	44420000	44760000
chr17	14520000	14640000
chr17	57240000	57340000
chr17	73340000	73560000
chr17	7300000	7820000
chr17	78600000	78940000
chr17	90600000	90820000
chr17	27640000	27780000
chr17	25720000	25840000
chr17	65580000	66540000
chr17	54360000	55500000
chr17	9280000	9400000
chr17	50980000	51180000
chr17	13460000	13800000
chr17	10800000	11620000
chr17	50060000	50180000
chr17	51820000	52500000
chr17	20820000	20920000
chr17	63000000	63320000
chr17	89660000	90040000
chr17	29980000	30220000
chr17	25220000	25820000
chr17	57800000	57920000
chr17	83080000	83220000
chr17	70000000	70120000
chr17	64380000	64480000
chr17	30000000	30100000
chr17	63660000	63800000
chr17	90800000	91100000
chr17	51640000	51740000
chr17	34040000	34600000
chr17	51180000	51780000
chr17	35920000	36300000
chr17	26660000	26800000
chr17	45080000	45200000
chr17	22840000	23200000
chr17	29580000	29700000
chr17	9840000	10060000
chr17	50460000	50680000
chr17	53940000	54060000
chr17	27880000	28080000
chr17	88260000	88440000
chr17	46740000	46900000
chr17	88960000	89060000
chr17	54460000	54600000
chr17	48460000	49240000
chr17	9020000	10320000
chr17	69840000	69960000
chr17	84200000	84460000
chr17	66760000	67180000
chr17	80240000	80460000
chr17	69400000	69500000
chr17	15520000	15780000
chr17	43280000	43440000
chr17	84200000	84420000
chr17	15540000	15740000
chr17	27020000	27540000
chr17	11620000	11800000
chr17	69480000	70380000
chr17	32980000	33420000
chr17	10100000	10200000
chr17	90040000	90520000
chr17	86640000	86860000
chr17	55020000	55500000
chr17	75240000	75340000
chr17	53480000	53880000
chr17	56260000	56720000
chr17	75620000	75940000
chr17	60920000	61020000
chr17	30660000	30980000
chr17	87980000	88640000
chr17	22700000	22840000
chr17	58560000	58940000
chr17	8160000	9000000
chr17	62880000	63000000
chr17	26260000	26460000
chr17	69580000	69980000
chr17	53860000	54340000
chr17	14560000	14920000
chr17	75660000	75780000
chr17	26300000	26460000
chr17	64140000	64280000
chr17	84960000	85080000
chr17	72500000	72600000
chr17	26900000	27040000
chr17	74720000	75580000
chr17	11160000	11620000
chr17	47360000	47500000
chr17	70840000	70960000
chr17	7460000	7720000
chr17	36820000	37280000
chr17	58600000	58820000
chr17	47620000	47740000
chr17	58480000	58880000
chr17	33040000	33280000
chr17	11620000	11980000
chr17	6500000	6920000
chr17	68260000	68860000
chr17	70700000	70800000
chr17	12220000	12400000
chr17	79180000	79360000
chr17	12040000	12180000
chr17	83280000	83440000
chr17	21040000	21140000
chr17	12100000	12220000
chr17	64600000	65560000
chr17	51200000	51300000
chr17	27960000	28080000
chr17	90660000	90780000
chr17	81180000	81360000
chr17	15100000	15540000
chr17	5760000	5940000
chr17	69080000	69400000
chr17	84780000	86120000
chr17	42300000	42520000
chr17	34460000	34580000
chr17	24740000	24840000
chr17	45260000	45400000
chr17	8240000	8380000
chr17	44260000	45420000
chr17	88060000	88260000
chr17	7940000	8180000
chr17	43880000	44080000
chr17	58220000	58340000
chr17	9180000	9700000
chr17	43260000	43500000
chr17	55720000	55860000
chr17	73900000	74320000
chr17	47500000	47660000
chr17	30260000	30440000
chr17	33080000	33280000
chr17	82980000	83860000
chr17	29160000	29260000
chr17	49220000	49440000
chr17	45680000	46160000
chr17	23740000	24120000
chr17	78180000	78600000
chr17	49420000	49920000
chr17	20020000	20940000
chr17	14220000	14520000
chr17	11360000	11620000
chr17	63520000	63860000
chr17	23320000	23500000
chr17	70200000	70360000
chr17	30080000	30220000
chr17	85180000	85500000
chr17	83700000	83800000
chr17	47500000	47620000
chr17	69980000	70360000
chr17	49760000	49860000
chr17	90040000	90580000
chr17	69120000	69420000
chr17	65840000	66120000
chr17	16680000	16900000
chr17	14620000	14980000
chr17	78640000	78940000
chr17	23000000	23140000
chr17	88960000	89660000
chr17	16080000	16200000
chr17	81360000	81680000
chr17	36300000	36760000
chr17	72260000	72580000
chr17	8440000	8600000
chr17	84700000	84820000
chr17	14520000	14920000
chr17	21760000	21860000
chr17	70980000	71480000
chr17	78960000	79100000
chr17	17360000	17660000
chr17	46460000	46760000
chr17	49440000	49540000
chr17	6060000	6380000
chr17	31320000	31520000
chr17	41980000	42080000
chr17	26460000	26660000
chr17	68180000	68880000
chr17	31900000	32020000
chr17	9760000	10320000
chr17	66520000	67780000
chr17	5200000	5420000
chr17	87980000	88600000
chr17	33040000	33400000
chr17	85100000	85200000
chr17	75080000	75400000
chr17	73900000	74180000
chr17	45080000	45260000
